HW #4
…
CoasterDataRaw <-read_csv("HW4DataFiles/635USrollercoasters.csv")

Rows: 635 Columns: 21
── Column specification ────────────────────────────────────────────────────────
Delimiter: ","
chr (12): Coaster, Park, City, State, Census Region, AgeGroup, Scale, Type, ...
dbl  (9): Year Opened, TopSpeed, MaxHeight, Drop, Length, Duration, # of Inv...

ℹ Use `spec()` to retrieve the full column specification for this data.
ℹ Specify the column types or set `show_col_types = FALSE` to quiet this message.

CoasterDataRaw

# A tibble: 635 × 21
   Coaster     Park  City  State `Census Region` `Year Opened` AgeGroup TopSpeed
   <chr>       <chr> <chr> <chr> <chr>                   <dbl> <chr>       <dbl>
 1 Adrenaline… Oaks… Port… Oreg… West                     2018 3:Newest     45  
 2 Adventure … King… Mason Ohio  Midwest                  1991 2:Recent     35  
 3 Afterburn   Caro… Char… Nort… South                    1999 2:Recent     62  
 4 Aftershock  Silv… Athol Idaho West                     2008 3:Newest     65.6
 5 Air Grover  Busc… Tampa Flor… South                    2010 3:Newest     22  
 6 Alpengeist  Busc… Will… Virg… South                    1997 2:Recent     67  
 7 Alpine Bob… Grea… Quee… New … Northeast                1998 2:Recent     35  
 8 American E… Six … Gurn… Illi… Midwest                  1981 2:Recent     66  
 9 American T… Six … Eure… Miss… Midwest                  2008 3:Newest     48  
10 Anaconda    King… Dosw… Virg… South                    1991 2:Recent     50  
# ℹ 625 more rows
# ℹ 13 more variables: MaxHeight <dbl>, Scale <chr>, Type <chr>, Design <chr>,
#   Drop <dbl>, Length <dbl>, Duration <dbl>, `Inversions?` <chr>,
#   `# of Inversions` <dbl>, Make <chr>, Latitude <dbl>, Longitude <dbl>,
#   Boundary <chr>
…
